Luan/mem_rv/simulation/qsim/mem_rv.msim.vcd
$comment
	File created using the following command:
		vcd file mem_rv.msim.vcd -direction
$end
$date
	Tue May 11 15:02:29 2021
$end
$version
	ModelSim Version 10.5b
$end
$timescale
	1ps
$end

$scope module mem_rv_vhd_vec_tst $end
$var wire 1 ! address [7] $end
$var wire 1 " address [6] $end
$var wire 1 # address [5] $end
$var wire 1 $ address [4] $end
$var wire 1 % address [3] $end
$var wire 1 & address [2] $end
$var wire 1 ' address [1] $end
$var wire 1 ( address [0] $end
$var wire 1 ) clock $end
$var wire 1 * datain [31] $end
$var wire 1 + datain [30] $end
$var wire 1 , datain [29] $end
$var wire 1 - datain [28] $end
$var wire 1 . datain [27] $end
$var wire 1 / datain [26] $end
$var wire 1 0 datain [25] $end
$var wire 1 1 datain [24] $end
$var wire 1 2 datain [23] $end
$var wire 1 3 datain [22] $end
$var wire 1 4 datain [21] $end
$var wire 1 5 datain [20] $end
$var wire 1 6 datain [19] $end
$var wire 1 7 datain [18] $end
$var wire 1 8 datain [17] $end
$var wire 1 9 datain [16] $end
$var wire 1 : datain [15] $end
$var wire 1 ; datain [14] $end
$var wire 1 < datain [13] $end
$var wire 1 = datain [12] $end
$var wire 1 > datain [11] $end
$var wire 1 ? datain [10] $end
$var wire 1 @ datain [9] $end
$var wire 1 A datain [8] $end
$var wire 1 B datain [7] $end
$var wire 1 C datain [6] $end
$var wire 1 D datain [5] $end
$var wire 1 E datain [4] $end
$var wire 1 F datain [3] $end
$var wire 1 G datain [2] $end
$var wire 1 H datain [1] $end
$var wire 1 I datain [0] $end
$var wire 1 J dataout [31] $end
$var wire 1 K dataout [30] $end
$var wire 1 L dataout [29] $end
$var wire 1 M dataout [28] $end
$var wire 1 N dataout [27] $end
$var wire 1 O dataout [26] $end
$var wire 1 P dataout [25] $end
$var wire 1 Q dataout [24] $end
$var wire 1 R dataout [23] $end
$var wire 1 S dataout [22] $end
$var wire 1 T dataout [21] $end
$var wire 1 U dataout [20] $end
$var wire 1 V dataout [19] $end
$var wire 1 W dataout [18] $end
$var wire 1 X dataout [17] $end
$var wire 1 Y dataout [16] $end
$var wire 1 Z dataout [15] $end
$var wire 1 [ dataout [14] $end
$var wire 1 \ dataout [13] $end
$var wire 1 ] dataout [12] $end
$var wire 1 ^ dataout [11] $end
$var wire 1 _ dataout [10] $end
$var wire 1 ` dataout [9] $end
$var wire 1 a dataout [8] $end
$var wire 1 b dataout [7] $end
$var wire 1 c dataout [6] $end
$var wire 1 d dataout [5] $end
$var wire 1 e dataout [4] $end
$var wire 1 f dataout [3] $end
$var wire 1 g dataout [2] $end
$var wire 1 h dataout [1] $end
$var wire 1 i dataout [0] $end
$var wire 1 j we $end

$scope module i1 $end
$var wire 1 k gnd $end
$var wire 1 l vcc $end
$var wire 1 m unknown $end
$var wire 1 n devoe $end
$var wire 1 o devclrn $end
$var wire 1 p devpor $end
$var wire 1 q ww_devoe $end
$var wire 1 r ww_devclrn $end
$var wire 1 s ww_devpor $end
$var wire 1 t ww_clock $end
$var wire 1 u ww_we $end
$var wire 1 v ww_address [7] $end
$var wire 1 w ww_address [6] $end
$var wire 1 x ww_address [5] $end
$var wire 1 y ww_address [4] $end
$var wire 1 z ww_address [3] $end
$var wire 1 { ww_address [2] $end
$var wire 1 | ww_address [1] $end
$var wire 1 } ww_address [0] $end
$var wire 1 ~ ww_datain [31] $end
$var wire 1 !! ww_datain [30] $end
$var wire 1 "! ww_datain [29] $end
$var wire 1 #! ww_datain [28] $end
$var wire 1 $! ww_datain [27] $end
$var wire 1 %! ww_datain [26] $end
$var wire 1 &! ww_datain [25] $end
$var wire 1 '! ww_datain [24] $end
$var wire 1 (! ww_datain [23] $end
$var wire 1 )! ww_datain [22] $end
$var wire 1 *! ww_datain [21] $end
$var wire 1 +! ww_datain [20] $end
$var wire 1 ,! ww_datain [19] $end
$var wire 1 -! ww_datain [18] $end
$var wire 1 .! ww_datain [17] $end
$var wire 1 /! ww_datain [16] $end
$var wire 1 0! ww_datain [15] $end
$var wire 1 1! ww_datain [14] $end
$var wire 1 2! ww_datain [13] $end
$var wire 1 3! ww_datain [12] $end
$var wire 1 4! ww_datain [11] $end
$var wire 1 5! ww_datain [10] $end
$var wire 1 6! ww_datain [9] $end
$var wire 1 7! ww_datain [8] $end
$var wire 1 8! ww_datain [7] $end
$var wire 1 9! ww_datain [6] $end
$var wire 1 :! ww_datain [5] $end
$var wire 1 ;! ww_datain [4] $end
$var wire 1 <! ww_datain [3] $end
$var wire 1 =! ww_datain [2] $end
$var wire 1 >! ww_datain [1] $end
$var wire 1 ?! ww_datain [0] $end
$var wire 1 @! ww_dataout [31] $end
$var wire 1 A! ww_dataout [30] $end
$var wire 1 B! ww_dataout [29] $end
$var wire 1 C! ww_dataout [28] $end
$var wire 1 D! ww_dataout [27] $end
$var wire 1 E! ww_dataout [26] $end
$var wire 1 F! ww_dataout [25] $end
$var wire 1 G! ww_dataout [24] $end
$var wire 1 H! ww_dataout [23] $end
$var wire 1 I! ww_dataout [22] $end
$var wire 1 J! ww_dataout [21] $end
$var wire 1 K! ww_dataout [20] $end
$var wire 1 L! ww_dataout [19] $end
$var wire 1 M! ww_dataout [18] $end
$var wire 1 N! ww_dataout [17] $end
$var wire 1 O! ww_dataout [16] $end
$var wire 1 P! ww_dataout [15] $end
$var wire 1 Q! ww_dataout [14] $end
$var wire 1 R! ww_dataout [13] $end
$var wire 1 S! ww_dataout [12] $end
$var wire 1 T! ww_dataout [11] $end
$var wire 1 U! ww_dataout [10] $end
$var wire 1 V! ww_dataout [9] $end
$var wire 1 W! ww_dataout [8] $end
$var wire 1 X! ww_dataout [7] $end
$var wire 1 Y! ww_dataout [6] $end
$var wire 1 Z! ww_dataout [5] $end
$var wire 1 [! ww_dataout [4] $end
$var wire 1 \! ww_dataout [3] $end
$var wire 1 ]! ww_dataout [2] $end
$var wire 1 ^! ww_dataout [1] $end
$var wire 1 _! ww_dataout [0] $end
$var wire 1 `! \mem_rtl_0|auto_generated|ram_block1a0_PORTADATAIN_bus\ [19] $end
$var wire 1 a! \mem_rtl_0|auto_generated|ram_block1a0_PORTADATAIN_bus\ [18] $end
$var wire 1 b! \mem_rtl_0|auto_generated|ram_block1a0_PORTADATAIN_bus\ [17] $end
$var wire 1 c! \mem_rtl_0|auto_generated|ram_block1a0_PORTADATAIN_bus\ [16] $end
$var wire 1 d! \mem_rtl_0|auto_generated|ram_block1a0_PORTADATAIN_bus\ [15] $end
$var wire 1 e! \mem_rtl_0|auto_generated|ram_block1a0_PORTADATAIN_bus\ [14] $end
$var wire 1 f! \mem_rtl_0|auto_generated|ram_block1a0_PORTADATAIN_bus\ [13] $end
$var wire 1 g! \mem_rtl_0|auto_generated|ram_block1a0_PORTADATAIN_bus\ [12] $end
$var wire 1 h! \mem_rtl_0|auto_generated|ram_block1a0_PORTADATAIN_bus\ [11] $end
$var wire 1 i! \mem_rtl_0|auto_generated|ram_block1a0_PORTADATAIN_bus\ [10] $end
$var wire 1 j! \mem_rtl_0|auto_generated|ram_block1a0_PORTADATAIN_bus\ [9] $end
$var wire 1 k! \mem_rtl_0|auto_generated|ram_block1a0_PORTADATAIN_bus\ [8] $end
$var wire 1 l! \mem_rtl_0|auto_generated|ram_block1a0_PORTADATAIN_bus\ [7] $end
$var wire 1 m! \mem_rtl_0|auto_generated|ram_block1a0_PORTADATAIN_bus\ [6] $end
$var wire 1 n! \mem_rtl_0|auto_generated|ram_block1a0_PORTADATAIN_bus\ [5] $end
$var wire 1 o! \mem_rtl_0|auto_generated|ram_block1a0_PORTADATAIN_bus\ [4] $end
$var wire 1 p! \mem_rtl_0|auto_generated|ram_block1a0_PORTADATAIN_bus\ [3] $end
$var wire 1 q! \mem_rtl_0|auto_generated|ram_block1a0_PORTADATAIN_bus\ [2] $end
$var wire 1 r! \mem_rtl_0|auto_generated|ram_block1a0_PORTADATAIN_bus\ [1] $end
$var wire 1 s! \mem_rtl_0|auto_generated|ram_block1a0_PORTADATAIN_bus\ [0] $end
$var wire 1 t! \mem_rtl_0|auto_generated|ram_block1a0_PORTAADDR_bus\ [7] $end
$var wire 1 u! \mem_rtl_0|auto_generated|ram_block1a0_PORTAADDR_bus\ [6] $end
$var wire 1 v! \mem_rtl_0|auto_generated|ram_block1a0_PORTAADDR_bus\ [5] $end
$var wire 1 w! \mem_rtl_0|auto_generated|ram_block1a0_PORTAADDR_bus\ [4] $end
$var wire 1 x! \mem_rtl_0|auto_generated|ram_block1a0_PORTAADDR_bus\ [3] $end
$var wire 1 y! \mem_rtl_0|auto_generated|ram_block1a0_PORTAADDR_bus\ [2] $end
$var wire 1 z! \mem_rtl_0|auto_generated|ram_block1a0_PORTAADDR_bus\ [1] $end
$var wire 1 {! \mem_rtl_0|auto_generated|ram_block1a0_PORTAADDR_bus\ [0] $end
$var wire 1 |! \mem_rtl_0|auto_generated|ram_block1a0_PORTADATAOUT_bus\ [19] $end
$var wire 1 }! \mem_rtl_0|auto_generated|ram_block1a0_PORTADATAOUT_bus\ [18] $end
$var wire 1 ~! \mem_rtl_0|auto_generated|ram_block1a0_PORTADATAOUT_bus\ [17] $end
$var wire 1 !" \mem_rtl_0|auto_generated|ram_block1a0_PORTADATAOUT_bus\ [16] $end
$var wire 1 "" \mem_rtl_0|auto_generated|ram_block1a0_PORTADATAOUT_bus\ [15] $end
$var wire 1 #" \mem_rtl_0|auto_generated|ram_block1a0_PORTADATAOUT_bus\ [14] $end
$var wire 1 $" \mem_rtl_0|auto_generated|ram_block1a0_PORTADATAOUT_bus\ [13] $end
$var wire 1 %" \mem_rtl_0|auto_generated|ram_block1a0_PORTADATAOUT_bus\ [12] $end
$var wire 1 &" \mem_rtl_0|auto_generated|ram_block1a0_PORTADATAOUT_bus\ [11] $end
$var wire 1 '" \mem_rtl_0|auto_generated|ram_block1a0_PORTADATAOUT_bus\ [10] $end
$var wire 1 (" \mem_rtl_0|auto_generated|ram_block1a0_PORTADATAOUT_bus\ [9] $end
$var wire 1 )" \mem_rtl_0|auto_generated|ram_block1a0_PORTADATAOUT_bus\ [8] $end
$var wire 1 *" \mem_rtl_0|auto_generated|ram_block1a0_PORTADATAOUT_bus\ [7] $end
$var wire 1 +" \mem_rtl_0|auto_generated|ram_block1a0_PORTADATAOUT_bus\ [6] $end
$var wire 1 ," \mem_rtl_0|auto_generated|ram_block1a0_PORTADATAOUT_bus\ [5] $end
$var wire 1 -" \mem_rtl_0|auto_generated|ram_block1a0_PORTADATAOUT_bus\ [4] $end
$var wire 1 ." \mem_rtl_0|auto_generated|ram_block1a0_PORTADATAOUT_bus\ [3] $end
$var wire 1 /" \mem_rtl_0|auto_generated|ram_block1a0_PORTADATAOUT_bus\ [2] $end
$var wire 1 0" \mem_rtl_0|auto_generated|ram_block1a0_PORTADATAOUT_bus\ [1] $end
$var wire 1 1" \mem_rtl_0|auto_generated|ram_block1a0_PORTADATAOUT_bus\ [0] $end
$var wire 1 2" \mem_rtl_0|auto_generated|ram_block1a12_PORTADATAIN_bus\ [19] $end
$var wire 1 3" \mem_rtl_0|auto_generated|ram_block1a12_PORTADATAIN_bus\ [18] $end
$var wire 1 4" \mem_rtl_0|auto_generated|ram_block1a12_PORTADATAIN_bus\ [17] $end
$var wire 1 5" \mem_rtl_0|auto_generated|ram_block1a12_PORTADATAIN_bus\ [16] $end
$var wire 1 6" \mem_rtl_0|auto_generated|ram_block1a12_PORTADATAIN_bus\ [15] $end
$var wire 1 7" \mem_rtl_0|auto_generated|ram_block1a12_PORTADATAIN_bus\ [14] $end
$var wire 1 8" \mem_rtl_0|auto_generated|ram_block1a12_PORTADATAIN_bus\ [13] $end
$var wire 1 9" \mem_rtl_0|auto_generated|ram_block1a12_PORTADATAIN_bus\ [12] $end
$var wire 1 :" \mem_rtl_0|auto_generated|ram_block1a12_PORTADATAIN_bus\ [11] $end
$var wire 1 ;" \mem_rtl_0|auto_generated|ram_block1a12_PORTADATAIN_bus\ [10] $end
$var wire 1 <" \mem_rtl_0|auto_generated|ram_block1a12_PORTADATAIN_bus\ [9] $end
$var wire 1 =" \mem_rtl_0|auto_generated|ram_block1a12_PORTADATAIN_bus\ [8] $end
$var wire 1 >" \mem_rtl_0|auto_generated|ram_block1a12_PORTADATAIN_bus\ [7] $end
$var wire 1 ?" \mem_rtl_0|auto_generated|ram_block1a12_PORTADATAIN_bus\ [6] $end
$var wire 1 @" \mem_rtl_0|auto_generated|ram_block1a12_PORTADATAIN_bus\ [5] $end
$var wire 1 A" \mem_rtl_0|auto_generated|ram_block1a12_PORTADATAIN_bus\ [4] $end
$var wire 1 B" \mem_rtl_0|auto_generated|ram_block1a12_PORTADATAIN_bus\ [3] $end
$var wire 1 C" \mem_rtl_0|auto_generated|ram_block1a12_PORTADATAIN_bus\ [2] $end
$var wire 1 D" \mem_rtl_0|auto_generated|ram_block1a12_PORTADATAIN_bus\ [1] $end
$var wire 1 E" \mem_rtl_0|auto_generated|ram_block1a12_PORTADATAIN_bus\ [0] $end
$var wire 1 F" \mem_rtl_0|auto_generated|ram_block1a12_PORTAADDR_bus\ [7] $end
$var wire 1 G" \mem_rtl_0|auto_generated|ram_block1a12_PORTAADDR_bus\ [6] $end
$var wire 1 H" \mem_rtl_0|auto_generated|ram_block1a12_PORTAADDR_bus\ [5] $end
$var wire 1 I" \mem_rtl_0|auto_generated|ram_block1a12_PORTAADDR_bus\ [4] $end
$var wire 1 J" \mem_rtl_0|auto_generated|ram_block1a12_PORTAADDR_bus\ [3] $end
$var wire 1 K" \mem_rtl_0|auto_generated|ram_block1a12_PORTAADDR_bus\ [2] $end
$var wire 1 L" \mem_rtl_0|auto_generated|ram_block1a12_PORTAADDR_bus\ [1] $end
$var wire 1 M" \mem_rtl_0|auto_generated|ram_block1a12_PORTAADDR_bus\ [0] $end
$var wire 1 N" \mem_rtl_0|auto_generated|ram_block1a12_PORTADATAOUT_bus\ [19] $end
$var wire 1 O" \mem_rtl_0|auto_generated|ram_block1a12_PORTADATAOUT_bus\ [18] $end
$var wire 1 P" \mem_rtl_0|auto_generated|ram_block1a12_PORTADATAOUT_bus\ [17] $end
$var wire 1 Q" \mem_rtl_0|auto_generated|ram_block1a12_PORTADATAOUT_bus\ [16] $end
$var wire 1 R" \mem_rtl_0|auto_generated|ram_block1a12_PORTADATAOUT_bus\ [15] $end
$var wire 1 S" \mem_rtl_0|auto_generated|ram_block1a12_PORTADATAOUT_bus\ [14] $end
$var wire 1 T" \mem_rtl_0|auto_generated|ram_block1a12_PORTADATAOUT_bus\ [13] $end
$var wire 1 U" \mem_rtl_0|auto_generated|ram_block1a12_PORTADATAOUT_bus\ [12] $end
$var wire 1 V" \mem_rtl_0|auto_generated|ram_block1a12_PORTADATAOUT_bus\ [11] $end
$var wire 1 W" \mem_rtl_0|auto_generated|ram_block1a12_PORTADATAOUT_bus\ [10] $end
$var wire 1 X" \mem_rtl_0|auto_generated|ram_block1a12_PORTADATAOUT_bus\ [9] $end
$var wire 1 Y" \mem_rtl_0|auto_generated|ram_block1a12_PORTADATAOUT_bus\ [8] $end
$var wire 1 Z" \mem_rtl_0|auto_generated|ram_block1a12_PORTADATAOUT_bus\ [7] $end
$var wire 1 [" \mem_rtl_0|auto_generated|ram_block1a12_PORTADATAOUT_bus\ [6] $end
$var wire 1 \" \mem_rtl_0|auto_generated|ram_block1a12_PORTADATAOUT_bus\ [5] $end
$var wire 1 ]" \mem_rtl_0|auto_generated|ram_block1a12_PORTADATAOUT_bus\ [4] $end
$var wire 1 ^" \mem_rtl_0|auto_generated|ram_block1a12_PORTADATAOUT_bus\ [3] $end
$var wire 1 _" \mem_rtl_0|auto_generated|ram_block1a12_PORTADATAOUT_bus\ [2] $end
$var wire 1 `" \mem_rtl_0|auto_generated|ram_block1a12_PORTADATAOUT_bus\ [1] $end
$var wire 1 a" \mem_rtl_0|auto_generated|ram_block1a12_PORTADATAOUT_bus\ [0] $end
$var wire 1 b" \~QUARTUS_CREATED_GND~I_combout\ $end
$var wire 1 c" \we~input_o\ $end
$var wire 1 d" \clock~input_o\ $end
$var wire 1 e" \clock~inputCLKENA0_outclk\ $end
$var wire 1 f" \datain[0]~input_o\ $end
$var wire 1 g" \address[0]~input_o\ $end
$var wire 1 h" \address[1]~input_o\ $end
$var wire 1 i" \address[2]~input_o\ $end
$var wire 1 j" \address[3]~input_o\ $end
$var wire 1 k" \address[4]~input_o\ $end
$var wire 1 l" \address[5]~input_o\ $end
$var wire 1 m" \address[6]~input_o\ $end
$var wire 1 n" \address[7]~input_o\ $end
$var wire 1 o" \datain[1]~input_o\ $end
$var wire 1 p" \datain[2]~input_o\ $end
$var wire 1 q" \datain[3]~input_o\ $end
$var wire 1 r" \datain[4]~input_o\ $end
$var wire 1 s" \datain[5]~input_o\ $end
$var wire 1 t" \datain[6]~input_o\ $end
$var wire 1 u" \datain[7]~input_o\ $end
$var wire 1 v" \datain[8]~input_o\ $end
$var wire 1 w" \datain[9]~input_o\ $end
$var wire 1 x" \datain[10]~input_o\ $end
$var wire 1 y" \datain[11]~input_o\ $end
$var wire 1 z" \mem_rtl_0|auto_generated|ram_block1a0~portadataout\ $end
$var wire 1 {" \mem_rtl_0|auto_generated|ram_block1a1\ $end
$var wire 1 |" \mem_rtl_0|auto_generated|ram_block1a2\ $end
$var wire 1 }" \mem_rtl_0|auto_generated|ram_block1a3\ $end
$var wire 1 ~" \mem_rtl_0|auto_generated|ram_block1a4\ $end
$var wire 1 !# \mem_rtl_0|auto_generated|ram_block1a5\ $end
$var wire 1 "# \mem_rtl_0|auto_generated|ram_block1a6\ $end
$var wire 1 ## \mem_rtl_0|auto_generated|ram_block1a7\ $end
$var wire 1 $# \mem_rtl_0|auto_generated|ram_block1a8\ $end
$var wire 1 %# \mem_rtl_0|auto_generated|ram_block1a9\ $end
$var wire 1 &# \mem_rtl_0|auto_generated|ram_block1a10\ $end
$var wire 1 '# \mem_rtl_0|auto_generated|ram_block1a11\ $end
$var wire 1 (# \datain[12]~input_o\ $end
$var wire 1 )# \datain[13]~input_o\ $end
$var wire 1 *# \datain[14]~input_o\ $end
$var wire 1 +# \datain[15]~input_o\ $end
$var wire 1 ,# \datain[16]~input_o\ $end
$var wire 1 -# \datain[17]~input_o\ $end
$var wire 1 .# \datain[18]~input_o\ $end
$var wire 1 /# \datain[19]~input_o\ $end
$var wire 1 0# \datain[20]~input_o\ $end
$var wire 1 1# \datain[21]~input_o\ $end
$var wire 1 2# \datain[22]~input_o\ $end
$var wire 1 3# \datain[23]~input_o\ $end
$var wire 1 4# \datain[24]~input_o\ $end
$var wire 1 5# \datain[25]~input_o\ $end
$var wire 1 6# \datain[26]~input_o\ $end
$var wire 1 7# \datain[27]~input_o\ $end
$var wire 1 8# \datain[28]~input_o\ $end
$var wire 1 9# \datain[29]~input_o\ $end
$var wire 1 :# \datain[30]~input_o\ $end
$var wire 1 ;# \datain[31]~input_o\ $end
$var wire 1 <# \mem_rtl_0|auto_generated|ram_block1a12~portadataout\ $end
$var wire 1 =# \mem_rtl_0|auto_generated|ram_block1a13\ $end
$var wire 1 ># \mem_rtl_0|auto_generated|ram_block1a14\ $end
$var wire 1 ?# \mem_rtl_0|auto_generated|ram_block1a15\ $end
$var wire 1 @# \mem_rtl_0|auto_generated|ram_block1a16\ $end
$var wire 1 A# \mem_rtl_0|auto_generated|ram_block1a17\ $end
$var wire 1 B# \mem_rtl_0|auto_generated|ram_block1a18\ $end
$var wire 1 C# \mem_rtl_0|auto_generated|ram_block1a19\ $end
$var wire 1 D# \mem_rtl_0|auto_generated|ram_block1a20\ $end
$var wire 1 E# \mem_rtl_0|auto_generated|ram_block1a21\ $end
$var wire 1 F# \mem_rtl_0|auto_generated|ram_block1a22\ $end
$var wire 1 G# \mem_rtl_0|auto_generated|ram_block1a23\ $end
$var wire 1 H# \mem_rtl_0|auto_generated|ram_block1a24\ $end
$var wire 1 I# \mem_rtl_0|auto_generated|ram_block1a25\ $end
$var wire 1 J# \mem_rtl_0|auto_generated|ram_block1a26\ $end
$var wire 1 K# \mem_rtl_0|auto_generated|ram_block1a27\ $end
$var wire 1 L# \mem_rtl_0|auto_generated|ram_block1a28\ $end
$var wire 1 M# \mem_rtl_0|auto_generated|ram_block1a29\ $end
$var wire 1 N# \mem_rtl_0|auto_generated|ram_block1a30\ $end
$var wire 1 O# \mem_rtl_0|auto_generated|ram_block1a31\ $end
$upscope $end
$upscope $end
$enddefinitions $end
#0
$dumpvars
0)
1j
0k
1l
xm
1n
1o
1p
1q
1r
1s
0t
1u
xb"
1c"
0d"
0e"
0f"
0g"
0h"
0i"
0j"
0k"
0l"
0m"
0n"
0o"
0p"
0q"
0r"
0s"
0t"
0u"
0v"
0w"
0x"
0y"
0z"
0{"
0|"
0}"
0~"
0!#
0"#
0##
0$#
0%#
0&#
0'#
0(#
0)#
0*#
0+#
0,#
0-#
0.#
0/#
00#
01#
02#
03#
04#
05#
06#
07#
08#
09#
0:#
0;#
0<#
0=#
0>#
0?#
0@#
0A#
0B#
0C#
0D#
0E#
0F#
0G#
0H#
0I#
0J#
0K#
0L#
0M#
0N#
0O#
0!
0"
0#
0$
0%
0&
0'
0(
0*
0+
0,
0-
0.
0/
00
01
02
03
04
05
06
07
08
09
0:
0;
0<
0=
0>
0?
0@
0A
0B
0C
0D
0E
0F
0G
0H
0I
0v
0w
0x
0y
0z
0{
0|
0}
0~
0!!
0"!
0#!
0$!
0%!
0&!
0'!
0(!
0)!
0*!
0+!
0,!
0-!
0.!
0/!
00!
01!
02!
03!
04!
05!
06!
07!
08!
09!
0:!
0;!
0<!
0=!
0>!
0?!
0@!
0A!
0B!
0C!
0D!
0E!
0F!
0G!
0H!
0I!
0J!
0K!
0L!
0M!
0N!
0O!
0P!
0Q!
0R!
0S!
0T!
0U!
0V!
0W!
0X!
0Y!
0Z!
0[!
0\!
0]!
0^!
0_!
0|!
0}!
0~!
0!"
0""
0#"
0$"
0%"
0&"
0'"
0("
0)"
0*"
0+"
0,"
0-"
0."
0/"
00"
01"
0N"
0O"
0P"
0Q"
0R"
0S"
0T"
0U"
0V"
0W"
0X"
0Y"
0Z"
0["
0\"
0]"
0^"
0_"
0`"
0a"
0`!
0a!
0b!
0c!
0d!
0e!
0f!
0g!
0h!
0i!
0j!
0k!
0l!
0m!
0n!
0o!
0p!
0q!
0r!
0s!
0t!
0u!
0v!
0w!
0x!
0y!
0z!
0{!
02"
03"
04"
05"
06"
07"
08"
09"
0:"
0;"
0<"
0="
0>"
0?"
0@"
0A"
0B"
0C"
0D"
0E"
0F"
0G"
0H"
0I"
0J"
0K"
0L"
0M"
0J
0K
0L
0M
0N
0O
0P
0Q
0R
0S
0T
0U
0V
0W
0X
0Y
0Z
0[
0\
0]
0^
0_
0`
0a
0b
0c
0d
0e
0f
0g
0h
0i
$end
#10000
1)
1t
1d"
1e"
#20000
0)
1(
1I
0t
1}
1?!
1f"
1g"
0d"
0e"
1s!
1M"
1{!
#30000
1)
1t
1d"
1e"
#30001
11"
1z"
1_!
1i
#40000
0)
0(
0I
1'
1H
0t
0}
1|
0?!
1>!
1o"
0f"
1h"
0g"
0d"
0e"
0s!
1r!
0M"
1L"
0{!
1z!
#50000
1)
1t
1d"
1e"
#50001
10"
01"
1{"
0z"
0_!
1^!
0i
1h
#60000
0)
1(
1I
0t
1}
1?!
1f"
1g"
0d"
0e"
1s!
1M"
1{!
#70000
1)
1t
1d"
1e"
#70001
11"
1z"
1_!
1i
#80000
0)
0(
0I
0'
0H
1&
1G
0t
0}
0|
1{
0?!
0>!
1=!
1p"
0o"
0f"
1i"
0h"
0g"
0d"
0e"
0s!
0r!
1q!
0M"
0L"
1K"
0{!
0z!
1y!
#90000
1)
1t
1d"
1e"
#90001
1/"
00"
01"
1|"
0{"
0z"
0_!
0^!
1]!
0i
0h
1g
#100000
0)
1(
1I
0t
1}
1?!
1f"
1g"
0d"
0e"
1s!
1M"
1{!
#110000
1)
1t
1d"
1e"
#110001
11"
1z"
1_!
1i
#120000
0)
0(
0I
1'
1H
0t
0}
1|
0?!
1>!
1o"
0f"
1h"
0g"
0d"
0e"
0s!
1r!
0M"
1L"
0{!
1z!
#130000
1)
1t
1d"
1e"
#130001
10"
01"
1{"
0z"
0_!
1^!
0i
1h
#140000
0)
1(
1I
0t
1}
1?!
1f"
1g"
0d"
0e"
1s!
1M"
1{!
#150000
1)
1t
1d"
1e"
#150001
11"
1z"
1_!
1i
#160000
0)
0(
0I
0'
0H
0&
0G
1%
1F
0t
0}
0|
0{
1z
0?!
0>!
0=!
1<!
1q"
0p"
0o"
0f"
1j"
0i"
0h"
0g"
0d"
0e"
0s!
0r!
0q!
1p!
0M"
0L"
0K"
1J"
0{!
0z!
0y!
1x!
#170000
1)
1t
1d"
1e"
#170001
1."
0/"
00"
01"
1}"
0|"
0{"
0z"
0_!
0^!
0]!
1\!
0i
0h
0g
1f
#180000
0)
1(
1I
0t
1}
1?!
1f"
1g"
0d"
0e"
1s!
1M"
1{!
#190000
1)
1t
1d"
1e"
#190001
11"
1z"
1_!
1i
#200000
0)
0(
0I
1'
1H
0t
0}
1|
0?!
1>!
1o"
0f"
1h"
0g"
0d"
0e"
0s!
1r!
0M"
1L"
0{!
1z!
#210000
1)
1t
1d"
1e"
#210001
10"
01"
1{"
0z"
0_!
1^!
0i
1h
#220000
0)
0'
0H
0%
0F
0j
0t
0|
0z
0>!
0<!
0u
0c"
0q"
0o"
0j"
0h"
0d"
0e"
0r!
0p!
0L"
0J"
0z!
0x!
#230000
1)
1t
1d"
1e"
#230001
0."
00"
0}"
0{"
0^!
0\!
0h
0f
#240000
0)
1(
1I
0t
1}
1?!
1f"
1g"
0d"
0e"
1s!
1M"
1{!
#250000
1)
1t
1d"
1e"
#250001
11"
1z"
1_!
1i
#260000
0)
0(
0I
1'
1H
0t
0}
1|
0?!
1>!
1o"
0f"
1h"
0g"
0d"
0e"
0s!
1r!
0M"
1L"
0{!
1z!
#270000
1)
1t
1d"
1e"
#270001
10"
01"
1{"
0z"
0_!
1^!
0i
1h
#280000
0)
1(
1I
0t
1}
1?!
1f"
1g"
0d"
0e"
1s!
1M"
1{!
#290000
1)
1t
1d"
1e"
#290001
11"
1z"
1_!
1i
#300000
0)
0(
0I
0'
0H
1&
1G
0t
0}
0|
1{
0?!
0>!
1=!
1p"
0o"
0f"
1i"
0h"
0g"
0d"
0e"
0s!
0r!
1q!
0M"
0L"
1K"
0{!
0z!
1y!
#310000
1)
1t
1d"
1e"
#310001
1/"
00"
01"
1|"
0{"
0z"
0_!
0^!
1]!
0i
0h
1g
#320000
0)
1(
1I
0t
1}
1?!
1f"
1g"
0d"
0e"
1s!
1M"
1{!
#330000
1)
1t
1d"
1e"
#330001
11"
1z"
1_!
1i
#340000
0)
0(
0I
1'
1H
0t
0}
1|
0?!
1>!
1o"
0f"
1h"
0g"
0d"
0e"
0s!
1r!
0M"
1L"
0{!
1z!
#350000
1)
1t
1d"
1e"
#350001
10"
01"
1{"
0z"
0_!
1^!
0i
1h
#360000
0)
1(
1I
0t
1}
1?!
1f"
1g"
0d"
0e"
1s!
1M"
1{!
#370000
1)
1t
1d"
1e"
#370001
11"
1z"
1_!
1i
#380000
0)
0(
0I
0'
0H
0&
0G
1%
1F
0t
0}
0|
0{
1z
0?!
0>!
0=!
1<!
1q"
0p"
0o"
0f"
1j"
0i"
0h"
0g"
0d"
0e"
0s!
0r!
0q!
1p!
0M"
0L"
0K"
1J"
0{!
0z!
0y!
1x!
#390000
1)
1t
1d"
1e"
#390001
1."
0/"
00"
01"
1}"
0|"
0{"
0z"
0_!
0^!
0]!
1\!
0i
0h
0g
1f
#400000
0)
1(
1I
0t
1}
1?!
1f"
1g"
0d"
0e"
1s!
1M"
1{!
#410000
1)
1t
1d"
1e"
#410001
11"
1z"
1_!
1i
#420000
0)
0(
0I
1'
1H
0t
0}
1|
0?!
1>!
1o"
0f"
1h"
0g"
0d"
0e"
0s!
1r!
0M"
1L"
0{!
1z!
#430000
1)
1t
1d"
1e"
#430001
10"
01"
1{"
0z"
0_!
1^!
0i
1h
#440000
0)
1(
1I
0t
1}
1?!
1f"
1g"
0d"
0e"
1s!
1M"
1{!
#450000
1)
1t
1d"
1e"
#450001
0."
00"
0}"
0{"
0^!
0\!
0h
0f
#460000
0)
0(
0I
0'
0H
1&
1G
0t
0}
0|
1{
0?!
0>!
1=!
1p"
0o"
0f"
1i"
0h"
0g"
0d"
0e"
0s!
0r!
1q!
0M"
0L"
1K"
0{!
0z!
1y!
#470000
1)
1t
1d"
1e"
#480000
0)
1(
1I
0t
1}
1?!
1f"
1g"
0d"
0e"
1s!
1M"
1{!
#490000
1)
1t
1d"
1e"
#500000
0)
0(
0I
0&
0G
0%
0F
0t
0}
0{
0z
0?!
0=!
0<!
0q"
0p"
0f"
0j"
0i"
0g"
0d"
0e"
0s!
0q!
0p!
0M"
0K"
0J"
0{!
0y!
0x!
#510000
1)
1t
1d"
1e"
#520000
0)
0t
0d"
0e"
#530000
1)
1t
1d"
1e"
#540000
0)
0t
0d"
0e"
#550000
1)
1t
1d"
1e"
#560000
0)
0t
0d"
0e"
#570000
1)
1t
1d"
1e"
#580000
0)
0t
0d"
0e"
#590000
1)
1t
1d"
1e"
#600000
0)
0t
0d"
0e"
#610000
1)
1t
1d"
1e"
#620000
0)
0t
0d"
0e"
#630000
1)
1t
1d"
1e"
#640000
0)
0t
0d"
0e"
#650000
1)
1t
1d"
1e"
#660000
0)
0t
0d"
0e"
#670000
1)
1t
1d"
1e"
#680000
0)
0t
0d"
0e"
#690000
1)
1t
1d"
1e"
#700000
0)
0t
0d"
0e"
#710000
1)
1t
1d"
1e"
#720000
0)
0t
0d"
0e"
