TF/simulation/qsim/Uniciclo.msim.vcd
$comment
	File created using the following command:
		vcd file Uniciclo.msim.vcd -direction
$end
$date
	Sat May 22 14:50:38 2021
$end
$version
	ModelSim Version 10.5b
$end
$timescale
	1ps
$end

$scope module mem_rom_rv_vhd_vec_tst $end
$var wire 1 ! address [7] $end
$var wire 1 " address [6] $end
$var wire 1 # address [5] $end
$var wire 1 $ address [4] $end
$var wire 1 % address [3] $end
$var wire 1 & address [2] $end
$var wire 1 ' address [1] $end
$var wire 1 ( address [0] $end
$var wire 1 ) dataout [31] $end
$var wire 1 * dataout [30] $end
$var wire 1 + dataout [29] $end
$var wire 1 , dataout [28] $end
$var wire 1 - dataout [27] $end
$var wire 1 . dataout [26] $end
$var wire 1 / dataout [25] $end
$var wire 1 0 dataout [24] $end
$var wire 1 1 dataout [23] $end
$var wire 1 2 dataout [22] $end
$var wire 1 3 dataout [21] $end
$var wire 1 4 dataout [20] $end
$var wire 1 5 dataout [19] $end
$var wire 1 6 dataout [18] $end
$var wire 1 7 dataout [17] $end
$var wire 1 8 dataout [16] $end
$var wire 1 9 dataout [15] $end
$var wire 1 : dataout [14] $end
$var wire 1 ; dataout [13] $end
$var wire 1 < dataout [12] $end
$var wire 1 = dataout [11] $end
$var wire 1 > dataout [10] $end
$var wire 1 ? dataout [9] $end
$var wire 1 @ dataout [8] $end
$var wire 1 A dataout [7] $end
$var wire 1 B dataout [6] $end
$var wire 1 C dataout [5] $end
$var wire 1 D dataout [4] $end
$var wire 1 E dataout [3] $end
$var wire 1 F dataout [2] $end
$var wire 1 G dataout [1] $end
$var wire 1 H dataout [0] $end

$scope module i1 $end
$var wire 1 I gnd $end
$var wire 1 J vcc $end
$var wire 1 K unknown $end
$var wire 1 L devoe $end
$var wire 1 M devclrn $end
$var wire 1 N devpor $end
$var wire 1 O ww_devoe $end
$var wire 1 P ww_devclrn $end
$var wire 1 Q ww_devpor $end
$var wire 1 R ww_address [7] $end
$var wire 1 S ww_address [6] $end
$var wire 1 T ww_address [5] $end
$var wire 1 U ww_address [4] $end
$var wire 1 V ww_address [3] $end
$var wire 1 W ww_address [2] $end
$var wire 1 X ww_address [1] $end
$var wire 1 Y ww_address [0] $end
$var wire 1 Z ww_dataout [31] $end
$var wire 1 [ ww_dataout [30] $end
$var wire 1 \ ww_dataout [29] $end
$var wire 1 ] ww_dataout [28] $end
$var wire 1 ^ ww_dataout [27] $end
$var wire 1 _ ww_dataout [26] $end
$var wire 1 ` ww_dataout [25] $end
$var wire 1 a ww_dataout [24] $end
$var wire 1 b ww_dataout [23] $end
$var wire 1 c ww_dataout [22] $end
$var wire 1 d ww_dataout [21] $end
$var wire 1 e ww_dataout [20] $end
$var wire 1 f ww_dataout [19] $end
$var wire 1 g ww_dataout [18] $end
$var wire 1 h ww_dataout [17] $end
$var wire 1 i ww_dataout [16] $end
$var wire 1 j ww_dataout [15] $end
$var wire 1 k ww_dataout [14] $end
$var wire 1 l ww_dataout [13] $end
$var wire 1 m ww_dataout [12] $end
$var wire 1 n ww_dataout [11] $end
$var wire 1 o ww_dataout [10] $end
$var wire 1 p ww_dataout [9] $end
$var wire 1 q ww_dataout [8] $end
$var wire 1 r ww_dataout [7] $end
$var wire 1 s ww_dataout [6] $end
$var wire 1 t ww_dataout [5] $end
$var wire 1 u ww_dataout [4] $end
$var wire 1 v ww_dataout [3] $end
$var wire 1 w ww_dataout [2] $end
$var wire 1 x ww_dataout [1] $end
$var wire 1 y ww_dataout [0] $end
$var wire 1 z \address[0]~input_o\ $end
$var wire 1 { \address[1]~input_o\ $end
$var wire 1 | \address[2]~input_o\ $end
$var wire 1 } \address[3]~input_o\ $end
$var wire 1 ~ \address[4]~input_o\ $end
$var wire 1 !! \address[5]~input_o\ $end
$var wire 1 "! \address[6]~input_o\ $end
$var wire 1 #! \address[7]~input_o\ $end
$var wire 1 $! \~QUARTUS_CREATED_GND~I_combout\ $end
$upscope $end
$upscope $end
$enddefinitions $end
#0
$dumpvars
0I
1J
xK
1L
1M
1N
1O
1P
1Q
0z
0{
0|
0}
0~
0!!
0"!
0#!
x$!
0!
0"
0#
0$
0%
0&
0'
0(
0R
0S
0T
0U
0V
0W
0X
0Y
0Z
0[
0\
0]
0^
0_
0`
0a
0b
0c
0d
0e
0f
0g
0h
0i
0j
0k
0l
0m
0n
0o
0p
0q
0r
0s
0t
0u
0v
0w
0x
0y
0)
0*
0+
0,
0-
0.
0/
00
01
02
03
04
05
06
07
08
09
0:
0;
0<
0=
0>
0?
0@
0A
0B
0C
0D
0E
0F
0G
0H
$end
#30000
1(
1Y
1z
#60000
0(
1'
0Y
1X
1{
0z
#90000
1(
1Y
1z
#120000
0(
0'
1&
0Y
0X
1W
1|
0{
0z
#150000
1(
1Y
1z
#180000
0(
1'
0Y
1X
1{
0z
#210000
1(
1Y
1z
#240000
0(
0'
0&
1%
0Y
0X
0W
1V
1}
0|
0{
0z
#270000
1(
1Y
1z
#300000
0(
1'
0Y
1X
1{
0z
#330000
1(
1Y
1z
#360000
0(
0'
1&
0Y
0X
1W
1|
0{
0z
#390000
1(
1Y
1z
#420000
0(
1'
0Y
1X
1{
0z
#450000
1(
1Y
1z
#480000
0(
0'
0&
0%
1$
0Y
0X
0W
0V
1U
1~
0}
0|
0{
0z
#510000
1(
1Y
1z
#540000
0(
1'
0Y
1X
1{
0z
#570000
1(
1Y
1z
#600000
0(
0'
1&
0Y
0X
1W
1|
0{
0z
#630000
1(
1Y
1z
#660000
0(
1'
0Y
1X
1{
0z
#690000
1(
1Y
1z
#720000
0(
0'
0&
1%
0Y
0X
0W
1V
1}
0|
0{
0z
#750000
1(
1Y
1z
#780000
0(
1'
0Y
1X
1{
0z
#810000
1(
1Y
1z
#840000
0(
0'
1&
0Y
0X
1W
1|
0{
0z
#870000
1(
1Y
1z
#900000
0(
1'
0Y
1X
1{
0z
#930000
1(
1Y
1z
#960000
0(
0'
0&
0%
0$
1#
0Y
0X
0W
0V
0U
1T
1!!
0~
0}
0|
0{
0z
#990000
1(
1Y
1z
